{
    "defaultSeverity": "error",
    "extends":
    [
        "tslint:recommended"
    ],
    "jsRules":
    {

    },
    "rules":
    {
        "no-console": false
    },
    "rulesDirectory":
    [

    ]
}